<svg xmlns="http://www.w3.org/2000/svg" fill="transparent" stroke-width="30" viewBox="0 0 500 500">
  <defs>
    <radialGradient id="RadialGradient1" cx="1" cy="1" r="0.75">
        <stop offset="0%" stop-color="darkgray"/>
        <stop offset="100%" stop-color="rgba(211,211,211,.5)"/>
      </radialGradient>
    <style type='text/css'>
    <![CDATA[
      .stroke-3 {
        stroke: darkgray;
        stroke-dasharray: 250;
        stroke-linecap: round;
      }

      .stroke-3-a {
        stroke: lightgrey;
        stroke-dasharray: 1 28;
        stroke-linecap: round;
        stroke-width: 10px;
      }

      .stroke-3-b {
        stroke: lightgrey;
        stroke-dasharray: 200;
        stroke-linecap: round;
      }
    ]]>
</style>
  </defs>
    <path id="little" d="M250,250 v-250 a250,250 0 0,0 -250,250 z" fill="url(#RadialGradient1)">
      <animateTransform
        attributeName="transform"
        attributeType="XML"
        type="rotate"
        from="00 250 250"
        to="360 250 250"
        dur="8s"
        repeatCount="indefinite"/>
    </path>
    <circle class="stroke-3" cx="250" cy="250" r="225">
      <animateTransform attributeName="transform" type="rotate" values="0 250 250; 90 250 250; 0 250 250" dur="3s" repeatCount="indefinite" keyTimes="0; 0.5; 1"/>
    </circle>
    <circle class="stroke-3-a" cx="250" cy="250" r="175">
      <animateTransform attributeName="transform" type="rotate" values="0 250 250; -270 250 250; 0 250 250" dur="5s" repeatCount="indefinite" keyTimes="0; 0.5; 1"/>
    </circle>
    <circle class="stroke-3-b" cx="250" cy="250" r="125">
      <animateTransform attributeName="transform" type="rotate" values="0 250 250; -180 250 250; 0 250 250" dur="3s" repeatCount="indefinite" keyTimes="0; 0.5; 1"/>
    </circle>
  </svg>